module atcc

go 1.18

require github.com/hyperledger/fabric-contract-api-go v1.1.1

require (
	github.com/PuerkitoBio/purell v1.1.1 // indirect
	github.com/PuerkitoBio/urlesc v0.0.0-20170810143723-de5bf2ad4578 // indirect
	github.com/go-openapi/jsonpointer v0.19.3 // indirect
	github.com/go-openapi/jsonreference v0.19.2 // indirect
	github.com/go-openapi/spec v0.19.4 // indirect
	github.com/go-openapi/swag v0.19.5 // indirect
	github.com/gobuffalo/envy v1.7.0 // indirect
	github.com/gobuffalo/packd v0.3.0 // indirect
	github.com/gobuffalo/packr v1.30.1 // indirect
	github.com/golang/protobuf v1.3.2 // indirect
	github.com/hyperledger/fabric-chaincode-go v0.0.0-20200424173110-d7076418f212 // indirect
	github.com/hyperledger/fabric-protos-go v0.0.0-20200424173316-dd554ba3746e // indirect
	github.com/joho/godotenv v1.3.0 // indirect
	github.com/mailru/easyjson v0.0.0-20190626092158-b2ccc519800e // indirect
	github.com/rogpeppe/go-internal v1.3.0 // indirect
	github.com/xeipuuv/gojsonpointer v0.0.0-20180127040702-4e3ac2762d5f // indirect
	github.com/xeipuuv/gojsonreference v0.0.0-20180127040603-bd5ef7bd5415 // indirect
	github.com/xeipuuv/gojsonschema v1.2.0 // indirect
	golang.org/x/net v0.0.0-20190827160401-ba9fcec4b297 // indirect
	golang.org/x/sys v0.0.0-20190710143415-6ec70d6a5542 // indirect
	golang.org/x/text v0.3.2 // indirect
	google.golang.org/genproto v0.0.0-20180831171423-11092d34479b // indirect
	google.golang.org/grpc v1.23.0 // indirect
	gopkg.in/yaml.v2 v2.2.8 // indirect
)
